## Autogenerated by Scribe. DO NOT MODIFY.

name: Contractors
description: ''
endpoints:
  -
    httpMethods:
      - GET
    uri: api/contragents
    metadata:
      groupName: Contractors
      groupDescription: ''
      subgroup: ''
      subgroupDescription: ''
      title: 'Get a list of contractors'
      description: 'This endpoint retrieves a paginated list of contractors along with their associated users.'
      authenticated: false
      custom: []
    headers:
      Content-Type: application/json
      Accept: application/json
    urlParameters: []
    cleanUrlParameters: []
    queryParameters:
      per_page:
        name: per_page
        description: 'The number of results per page. Defaults to 15.'
        required: false
        example: 20
        type: integer
        enumValues: []
        exampleWasSpecified: true
        nullable: false
        custom: []
    cleanQueryParameters:
      per_page: 20
    bodyParameters: []
    cleanBodyParameters: []
    fileParameters: []
    responses:
      -
        status: 200
        content: |-
          {
            "data": [
              {
                "id": 1,
                "inn": "7707083893",
                "address": "123 Main St, Moscow",
                "name": "ООО Контрагент",
                "user": {
                  "id": 1,
                  "name": "John Doe",
                  "email": "john@example.com",
                  "email_verified_at": "2024-03-01 12:00:00"
                }
              }
            ],
            "links": {
              "first": "http://your-app.test/api/contractors?page=1",
              "last": "http://your-app.test/api/contractors?page=3",
              "prev": null,
              "next": "http://your-app.test/api/contractors?page=2"
            },
            "meta": {
              "current_page": 1,
              "from": 1,
              "last_page": 3,
              "path": "http://your-app.test/api/contractors",
              "per_page": 15,
              "to": 15,
              "total": 45
            }
          }
        headers: []
        description: ''
        custom: []
    responseFields: []
    auth: []
    controller: null
    method: null
    route: null
    custom: []
  -
    httpMethods:
      - POST
    uri: api/contragents
    metadata:
      groupName: Contractors
      groupDescription: ''
      subgroup: ''
      subgroupDescription: ''
      title: 'Create a new contractor'
      description: 'This endpoint allows creating a new contractor by providing an INN, address, name, and a user ID.'
      authenticated: false
      custom: []
    headers:
      Content-Type: application/json
      Accept: application/json
    urlParameters: []
    cleanUrlParameters: []
    queryParameters: []
    cleanQueryParameters: []
    bodyParameters:
      inn:
        name: inn
        description: 'The INN (Taxpayer Identification Number) of the contractor.'
        required: true
        example: '"7707083893"'
        type: string
        enumValues: []
        exampleWasSpecified: true
        nullable: false
        custom: []
      address:
        name: address
        description: 'optional The address of the contractor.'
        required: false
        example: '"123 Main St, Moscow"'
        type: string
        enumValues: []
        exampleWasSpecified: true
        nullable: false
        custom: []
      name:
        name: name
        description: 'The name of the contractor.'
        required: true
        example: '"ООО Контрагент"'
        type: string
        enumValues: []
        exampleWasSpecified: true
        nullable: false
        custom: []
      user_id:
        name: user_id
        description: 'The ID of the associated user. Must exist in the users table.'
        required: true
        example: 1
        type: integer
        enumValues: []
        exampleWasSpecified: true
        nullable: false
        custom: []
    cleanBodyParameters:
      inn: '"7707083893"'
      address: '"123 Main St, Moscow"'
      name: '"ООО Контрагент"'
      user_id: 1
    fileParameters: []
    responses:
      -
        status: 201
        content: |-
          {
            "id": 1,
            "inn": "7707083893",
            "address": "123 Main St, Moscow",
            "name": "ООО Контрагент",
            "user": {
              "id": 1,
              "name": "John Doe",
              "email": "john@example.com",
              "email_verified_at": "2024-03-01 12:00:00"
            }
          }
        headers: []
        description: ''
        custom: []
      -
        status: 404
        content: |-
          {
            "message": "User not found"
          }
        headers: []
        description: ''
        custom: []
      -
        status: 503
        content: |-
          {
            "message": "Service is temporarily unavailable, try again later"
          }
        headers: []
        description: ''
        custom: []
    responseFields: []
    auth: []
    controller: null
    method: null
    route: null
    custom: []
  -
    httpMethods:
      - POST
    uri: 'api/contragents/{contagent_id}/attach/{user_id}'
    metadata:
      groupName: Contractors
      groupDescription: ''
      subgroup: ''
      subgroupDescription: ''
      title: 'Attach a user to a contractor'
      description: 'This endpoint allows associating a user with a contractor.'
      authenticated: false
      custom: []
    headers:
      Content-Type: application/json
      Accept: application/json
    urlParameters:
      contagent_id:
        name: contagent_id
        description: 'The ID of the contagent.'
        required: true
        example: 16
        type: integer
        enumValues: []
        exampleWasSpecified: false
        nullable: false
        custom: []
      user_id:
        name: user_id
        description: 'The ID of the user.'
        required: true
        example: 16
        type: integer
        enumValues: []
        exampleWasSpecified: false
        nullable: false
        custom: []
      contagent:
        name: contagent
        description: 'The ID of the contractor to attach the user to.'
        required: true
        example: '1'
        type: string
        enumValues: []
        exampleWasSpecified: true
        nullable: false
        custom: []
      user:
        name: user
        description: 'The ID of the user to associate with the contractor.'
        required: true
        example: '2'
        type: string
        enumValues: []
        exampleWasSpecified: true
        nullable: false
        custom: []
    cleanUrlParameters:
      contagent_id: 16
      user_id: 16
      contagent: '1'
      user: '2'
    queryParameters: []
    cleanQueryParameters: []
    bodyParameters: []
    cleanBodyParameters: []
    fileParameters: []
    responses:
      -
        status: 200
        content: |-
          {
            "id": 1,
            "inn": "7707083893",
            "address": "123 Main St, Moscow",
            "name": "ООО Контрагент",
            "user": {
              "id": 2,
              "name": "John Doe",
              "email": "john@example.com",
              "email_verified_at": "2024-03-01 12:00:00"
            }
          }
        headers: []
        description: ''
        custom: []
      -
        status: 404
        content: |-
          {
            "message": "Contractor or user not found"
          }
        headers: []
        description: ''
        custom: []
    responseFields: []
    auth: []
    controller: null
    method: null
    route: null
    custom: []
